\relax 
\providecommand\hyper@newdestlabel[2]{}
\catcode `"\active 
\providecommand\HyperFirstAtBeginDocument{\AtBeginDocument}
\HyperFirstAtBeginDocument{\ifx\hyper@anchor\@undefined
\global\let\oldcontentsline\contentsline
\gdef\contentsline#1#2#3#4{\oldcontentsline{#1}{#2}{#3}}
\global\let\oldnewlabel\newlabel
\gdef\newlabel#1#2{\newlabelxx{#1}#2}
\gdef\newlabelxx#1#2#3#4#5#6{\oldnewlabel{#1}{{#2}{#3}}}
\AtEndDocument{\ifx\hyper@anchor\@undefined
\let\contentsline\oldcontentsline
\let\newlabel\oldnewlabel
\fi}
\fi}
\global\let\hyper@last\relax 
\gdef\HyperFirstAtBeginDocument#1{#1}
\providecommand\HyField@AuxAddToFields[1]{}
\providecommand\HyField@AuxAddToCoFields[2]{}
\select@language{polish}
\@writefile{toc}{\select@language{polish}}
\@writefile{lof}{\select@language{polish}}
\@writefile{lot}{\select@language{polish}}
\citation{dotnet}
\citation{aspnetmvc}
\citation{iis}
\citation{angular}
\citation{sqlserver}
\@writefile{toc}{\contentsline {paragraph}{}{1}{section*.1}}
\@writefile{toc}{\contentsline {paragraph}{}{1}{section*.2}}
\citation{dotnet}
\citation{aspnetmvc}
\citation{iis}
\citation{angular}
\citation{sqlserver}
\select@language{english}
\@writefile{toc}{\select@language{english}}
\@writefile{lof}{\select@language{english}}
\@writefile{lot}{\select@language{english}}
\@writefile{toc}{\contentsline {paragraph}{}{1}{section*.3}}
\@writefile{toc}{\contentsline {paragraph}{}{1}{section*.4}}
\select@language{polish}
\@writefile{toc}{\select@language{polish}}
\@writefile{lof}{\select@language{polish}}
\@writefile{lot}{\select@language{polish}}
\citation{wordpress}
\citation{joomla}
\citation{drupal}
\citation{orchard}
\citation{umbraco}
\@writefile{toc}{\contentsline {chapter}{\numberline {1}Wst\k ep}{6}{chapter.1}}
\@writefile{lof}{\addvspace {10\p@ }}
\@writefile{lot}{\addvspace {10\p@ }}
\@writefile{toc}{\contentsline {paragraph}{}{6}{section*.6}}
\@writefile{toc}{\contentsline {paragraph}{}{6}{section*.7}}
\@writefile{toc}{\contentsline {chapter}{\numberline {2}Podzia\IeC {\l } pracy}{7}{chapter.2}}
\@writefile{lof}{\addvspace {10\p@ }}
\@writefile{lot}{\addvspace {10\p@ }}
\@writefile{toc}{\contentsline {section}{\numberline {2.1}\IeC {\L }ukasz Dragan}{7}{section.2.1}}
\@writefile{toc}{\contentsline {paragraph}{}{7}{section*.8}}
\@writefile{toc}{\contentsline {section}{\numberline {2.2}Marcin Fusiara}{7}{section.2.2}}
\@writefile{toc}{\contentsline {paragraph}{}{7}{section*.9}}
\@writefile{toc}{\contentsline {chapter}{\numberline {3}Analiza za\IeC {\l }o\.ze\'n projektowych}{8}{chapter.3}}
\@writefile{lof}{\addvspace {10\p@ }}
\@writefile{lot}{\addvspace {10\p@ }}
\@writefile{toc}{\contentsline {paragraph}{}{8}{section*.10}}
\@writefile{toc}{\contentsline {section}{\numberline {3.1}U\.zytkownik}{8}{section.3.1}}
\@writefile{toc}{\contentsline {paragraph}{}{8}{section*.11}}
\@writefile{toc}{\contentsline {subsection}{\numberline {3.1.1}Role u\.zytkownik\'ow}{9}{subsection.3.1.1}}
\@writefile{lof}{\contentsline {figure}{\numberline {3.1}{\ignorespaces Diagram przypadk\'ow u\.zycia zwi\k azanych z u\.zytkownikiem}}{10}{figure.3.1}}
\@writefile{toc}{\contentsline {subsection}{\numberline {3.1.2}Dodanie nowego u\.zytkownika}{10}{subsection.3.1.2}}
\@writefile{toc}{\contentsline {subsection}{\numberline {3.1.3}Rejestracja nowego u\.zytkownika}{11}{subsection.3.1.3}}
\@writefile{toc}{\contentsline {subsection}{\numberline {3.1.4}Wyszukiwanie u\.zytkownika}{12}{subsection.3.1.4}}
\@writefile{toc}{\contentsline {subsection}{\numberline {3.1.5}Zmiana roli istniej\k acego u\.zytkownika}{12}{subsection.3.1.5}}
\@writefile{toc}{\contentsline {subsection}{\numberline {3.1.6}Edycja danych u\.zytkownika}{12}{subsection.3.1.6}}
\@writefile{toc}{\contentsline {subsection}{\numberline {3.1.7}Dezaktywacja istniej\k acego u\.zytkownika}{13}{subsection.3.1.7}}
\@writefile{toc}{\contentsline {subsection}{\numberline {3.1.8}Ponowna aktywacja istniej\k acego u\.zytkownika}{13}{subsection.3.1.8}}
\@writefile{toc}{\contentsline {subsection}{\numberline {3.1.9}Logowanie do systemu}{14}{subsection.3.1.9}}
\@writefile{toc}{\contentsline {subsection}{\numberline {3.1.10}Zmiana has\IeC {\l }a u\.zytkownika}{14}{subsection.3.1.10}}
\@writefile{toc}{\contentsline {subsection}{\numberline {3.1.11}Reset has\IeC {\l }a u\.zytkownika}{15}{subsection.3.1.11}}
\@writefile{toc}{\contentsline {section}{\numberline {3.2}Modu\IeC {\l } forum}{15}{section.3.2}}
\@writefile{toc}{\contentsline {paragraph}{}{15}{section*.12}}
\@writefile{toc}{\contentsline {paragraph}{}{15}{section*.13}}
\@writefile{toc}{\contentsline {subsection}{\numberline {3.2.1}Uzyskanie dost\k epu do pisania na forum}{16}{subsection.3.2.1}}
\@writefile{toc}{\contentsline {subsection}{\numberline {3.2.2}Uzyskanie dost\k epu do czytania na forum}{16}{subsection.3.2.2}}
\@writefile{toc}{\contentsline {section}{\numberline {3.3}Modu\IeC {\l } stron informacyjnych}{16}{section.3.3}}
\@writefile{toc}{\contentsline {paragraph}{}{16}{section*.14}}
\@writefile{lof}{\contentsline {figure}{\numberline {3.2}{\ignorespaces Diagram przypadk\'ow u\.zycia dotycz\k acych stron informacyjnych}}{17}{figure.3.2}}
\@writefile{toc}{\contentsline {subsection}{\numberline {3.3.1}Wy\'swietlanie stron}{17}{subsection.3.3.1}}
\@writefile{toc}{\contentsline {subsection}{\numberline {3.3.2}Zmiana j\k ezyka na stronie}{18}{subsection.3.3.2}}
\@writefile{toc}{\contentsline {subsection}{\numberline {3.3.3}Dodanie nowego odno\'snika do menu nawigacyjnego}{18}{subsection.3.3.3}}
\@writefile{toc}{\contentsline {subsection}{\numberline {3.3.4}Dodanie t\IeC {\l }umaczenia dla istniej\k acej podstrony}{19}{subsection.3.3.4}}
\@writefile{toc}{\contentsline {subsection}{\numberline {3.3.5}Edycja istniej\k acej strony}{19}{subsection.3.3.5}}
\@writefile{toc}{\contentsline {subsection}{\numberline {3.3.6}Usuni\k ecie istniej\k acej strony}{19}{subsection.3.3.6}}
\@writefile{toc}{\contentsline {subsection}{\numberline {3.3.7}Dodanie nowej strony}{20}{subsection.3.3.7}}
\@writefile{toc}{\contentsline {section}{\numberline {3.4}Modu\IeC {\l } dydaktyki}{20}{section.3.4}}
\@writefile{toc}{\contentsline {paragraph}{}{20}{section*.15}}
\@writefile{lof}{\contentsline {figure}{\numberline {3.3}{\ignorespaces Diagram przypadk\'ow u\.zycia dotycz\k acych modu\IeC {\l }u dydaktyki}}{21}{figure.3.3}}
\@writefile{toc}{\contentsline {paragraph}{}{21}{section*.16}}
\@writefile{lof}{\contentsline {figure}{\numberline {3.4}{\ignorespaces Struktura stron modu\IeC {\l }u ,,dydaktyka''}}{22}{figure.3.4}}
\@writefile{toc}{\contentsline {subsection}{\numberline {3.4.1}Edycja strony przedmiotu}{22}{subsection.3.4.1}}
\@writefile{toc}{\contentsline {subsection}{\numberline {3.4.2}Pobranie pliku}{22}{subsection.3.4.2}}
\@writefile{toc}{\contentsline {subsection}{\numberline {3.4.3}Odczyt informacji zawartych na stronie przedmiotu}{23}{subsection.3.4.3}}
\@writefile{toc}{\contentsline {subsection}{\numberline {3.4.4}Dodanie nowego przedmiotu}{23}{subsection.3.4.4}}
\@writefile{toc}{\contentsline {subsection}{\numberline {3.4.5}Przypisanie nauczyciela do przedmiotu}{24}{subsection.3.4.5}}
\@writefile{toc}{\contentsline {subsection}{\numberline {3.4.6}Usuni\k ecie przedmiotu}{24}{subsection.3.4.6}}
\@writefile{toc}{\contentsline {subsection}{\numberline {3.4.7}Wypisanie nauczyciela z przedmiotu}{25}{subsection.3.4.7}}
\@writefile{toc}{\contentsline {subsection}{\numberline {3.4.8}Rejestracja na przedmiot}{25}{subsection.3.4.8}}
\@writefile{toc}{\contentsline {section}{\numberline {3.5}Modu\IeC {\l } administratora}{26}{section.3.5}}
\@writefile{toc}{\contentsline {paragraph}{}{26}{section*.17}}
\@writefile{toc}{\contentsline {paragraph}{Konfiguracja menu}{26}{section*.18}}
\@writefile{toc}{\contentsline {paragraph}{Zarz\k adzanie j\k ezykami}{26}{section*.19}}
\@writefile{toc}{\contentsline {paragraph}{Edycja galerii}{26}{section*.20}}
\@writefile{toc}{\contentsline {paragraph}{Konfiguracja kafelkowego menu strony g\IeC {\l }\'ownej}{26}{section*.21}}
\@writefile{lof}{\contentsline {figure}{\numberline {3.5}{\ignorespaces Diagram przypadk\'ow u\.zycia dotycz\k acych zarz\k adzania j\k ezykami i menu}}{27}{figure.3.5}}
\@writefile{toc}{\contentsline {subsection}{\numberline {3.5.1}Edycja menu nawigacyjnego}{27}{subsection.3.5.1}}
\@writefile{toc}{\contentsline {subsection}{\numberline {3.5.2}Edycja menu kafelk\'ow}{28}{subsection.3.5.2}}
\@writefile{toc}{\contentsline {subsection}{\numberline {3.5.3}Dodanie nowego j\k ezyka}{28}{subsection.3.5.3}}
\@writefile{toc}{\contentsline {subsection}{\numberline {3.5.4}Edycja t\IeC {\l }umacze\'n tre\'sci systemu}{29}{subsection.3.5.4}}
\@writefile{toc}{\contentsline {subsection}{\numberline {3.5.5}Edycja galerii obrazk\'ow}{29}{subsection.3.5.5}}
\@writefile{toc}{\contentsline {section}{\numberline {3.6}Wymagania niefunkcjonalne}{29}{section.3.6}}
\citation{dotnet}
\@writefile{toc}{\contentsline {chapter}{\numberline {4}Architektura systemu}{31}{chapter.4}}
\@writefile{lof}{\addvspace {10\p@ }}
\@writefile{lot}{\addvspace {10\p@ }}
\@writefile{toc}{\contentsline {paragraph}{}{31}{section*.22}}
\@writefile{toc}{\contentsline {paragraph}{}{31}{section*.23}}
\@writefile{lof}{\contentsline {figure}{\numberline {4.1}{\ignorespaces Diagram przedstawiaj\k acy zarys architektury systemu}}{32}{figure.4.1}}
\@writefile{toc}{\contentsline {paragraph}{}{32}{section*.24}}
\@writefile{toc}{\contentsline {section}{\numberline {4.1}Warstwy systemu}{32}{section.4.1}}
\@writefile{toc}{\contentsline {paragraph}{Warstwa dost\k epu do danych}{32}{section*.25}}
\@writefile{toc}{\contentsline {paragraph}{Warstwa logiki biznesowej}{32}{section*.26}}
\citation{angular}
\citation{sqlserver}
\citation{entity}
\citation{entity}
\@writefile{toc}{\contentsline {paragraph}{Warstwa interfejsu u\.zytkownika}{33}{section*.27}}
\@writefile{toc}{\contentsline {section}{\numberline {4.2}Baza danych}{33}{section.4.2}}
\@writefile{toc}{\contentsline {paragraph}{}{33}{section*.28}}
\@writefile{toc}{\contentsline {paragraph}{}{34}{section*.29}}
\@writefile{toc}{\contentsline {paragraph}{}{34}{section*.30}}
\@writefile{toc}{\contentsline {paragraph}{}{34}{section*.31}}
\@writefile{toc}{\contentsline {section}{\numberline {4.3}U\.zytkownicy systemu}{34}{section.4.3}}
\@writefile{toc}{\contentsline {paragraph}{}{34}{section*.32}}
\@writefile{toc}{\contentsline {section}{\numberline {4.4}Wieloj\k ezyczno\'s\'c}{35}{section.4.4}}
\@writefile{toc}{\contentsline {paragraph}{}{35}{section*.33}}
\@writefile{toc}{\contentsline {paragraph}{Zmiana wersji j\k ezykowej}{35}{section*.34}}
\@writefile{toc}{\contentsline {paragraph}{}{36}{section*.35}}
\@writefile{toc}{\contentsline {section}{\numberline {4.5}Projekt podstron}{36}{section.4.5}}
\@writefile{lof}{\contentsline {figure}{\numberline {4.2}{\ignorespaces Diagram przedstawiaj\k acy drzewo stron systemowych.}}{36}{figure.4.2}}
\@writefile{toc}{\contentsline {paragraph}{}{36}{section*.36}}
\citation{mvcforum}
\citation{dotnet}
\citation{mvcforum}
\citation{owin}
\citation{dotnet}
\citation{formsauth}
\citation{owin}
\citation{formsauth}
\citation{formsauth}
\@writefile{toc}{\contentsline {section}{\numberline {4.6}Integracja systemu z forum}{37}{section.4.6}}
\@writefile{toc}{\contentsline {paragraph}{}{37}{section*.37}}
\@writefile{toc}{\contentsline {paragraph}{Integracja uwierzytelniania}{37}{section*.38}}
\citation{aspnet}
\citation{antiforgery}
\@writefile{toc}{\contentsline {paragraph}{Integracja u\.zytkownik\'ow}{38}{section*.39}}
\@writefile{toc}{\contentsline {section}{\numberline {4.7}Dodatkowe mechanizmy u\.zyte w systemie}{38}{section.4.7}}
\@writefile{toc}{\contentsline {subsection}{\numberline {4.7.1}Uwierzytelnianie}{38}{subsection.4.7.1}}
\@writefile{toc}{\contentsline {paragraph}{}{38}{section*.40}}
\@writefile{toc}{\contentsline {subsection}{\numberline {4.7.2}Walidacja AntiForgery}{38}{subsection.4.7.2}}
\@writefile{toc}{\contentsline {paragraph}{}{38}{section*.41}}
\@writefile{toc}{\contentsline {subsection}{\numberline {4.7.3}Cache}{39}{subsection.4.7.3}}
\@writefile{toc}{\contentsline {paragraph}{}{39}{section*.42}}
\@writefile{toc}{\contentsline {subsection}{\numberline {4.7.4}Stronicowanie}{39}{subsection.4.7.4}}
\@writefile{toc}{\contentsline {paragraph}{}{39}{section*.43}}
\citation{identity}
\@writefile{toc}{\contentsline {chapter}{\numberline {5}Proces tworzenia systemu}{40}{chapter.5}}
\@writefile{lof}{\addvspace {10\p@ }}
\@writefile{lot}{\addvspace {10\p@ }}
\@writefile{toc}{\contentsline {section}{\numberline {5.1}Harmonogram}{40}{section.5.1}}
\@writefile{toc}{\contentsline {paragraph}{}{40}{section*.44}}
\citation{foundation}
\citation{angular}
\citation{git}
\citation{gitlab}
\@writefile{toc}{\contentsline {section}{\numberline {5.2}Metodyka wytwarzania oprogramowania}{43}{section.5.2}}
\@writefile{toc}{\contentsline {paragraph}{}{43}{section*.45}}
\@writefile{toc}{\contentsline {subsection}{\numberline {5.2.1}Wersjonowanie}{43}{subsection.5.2.1}}
\@writefile{toc}{\contentsline {paragraph}{}{43}{section*.46}}
\citation{sqlserver}
\citation{managementstudio}
\@writefile{toc}{\contentsline {chapter}{\numberline {6}Dokumentacja techniczna}{44}{chapter.6}}
\@writefile{lof}{\addvspace {10\p@ }}
\@writefile{lot}{\addvspace {10\p@ }}
\@writefile{toc}{\contentsline {paragraph}{}{44}{section*.47}}
\@writefile{toc}{\contentsline {section}{\numberline {6.1}Struktura bazy danych}{44}{section.6.1}}
\@writefile{toc}{\contentsline {paragraph}{}{44}{section*.48}}
\@writefile{lof}{\contentsline {figure}{\numberline {6.1}{\ignorespaces Schemat tabel bazy danych zwi\k azanych z u\.zytkownikiem i przedmiotami.}}{45}{figure.6.1}}
\@writefile{lof}{\contentsline {figure}{\numberline {6.2}{\ignorespaces Schemat tabel bazy danych zwi\k azanych ze stronami, menu i j\k ezykami.}}{46}{figure.6.2}}
\@writefile{toc}{\contentsline {section}{\numberline {6.2}Najwa\.zniejsze klasy}{47}{section.6.2}}
\@writefile{toc}{\contentsline {subsection}{\numberline {6.2.1}Model dziedziny}{47}{subsection.6.2.1}}
\@writefile{toc}{\contentsline {paragraph}{}{47}{section*.49}}
\@writefile{lof}{\contentsline {figure}{\numberline {6.3}{\ignorespaces Schemat klas cz\k e\'sci modelu dziedziny systemu zwi\k azanej z j\k ezykami i stronami.}}{47}{figure.6.3}}
\citation{identity}
\citation{identityuser}
\citation{identity}
\@writefile{lof}{\contentsline {figure}{\numberline {6.4}{\ignorespaces Schemat klas modelu dziedziny systemu zwi\k azanej z u\.zytkownikiem i przedmiotami.}}{48}{figure.6.4}}
\@writefile{toc}{\contentsline {paragraph}{User}{48}{section*.50}}
\citation{dbcontext}
\citation{entity}
\@writefile{toc}{\contentsline {paragraph}{Subject}{49}{section*.51}}
\@writefile{toc}{\contentsline {paragraph}{Language}{49}{section*.52}}
\@writefile{toc}{\contentsline {paragraph}{PageGroup, MenuGroup}{49}{section*.53}}
\@writefile{toc}{\contentsline {subsection}{\numberline {6.2.2}Logika biznesowa}{49}{subsection.6.2.2}}
\@writefile{toc}{\contentsline {paragraph}{}{49}{section*.54}}
\@writefile{lof}{\contentsline {figure}{\numberline {6.5}{\ignorespaces Schemat serwis\'ow warstwy logiki biznesowej.}}{50}{figure.6.5}}
\citation{systemwebhttp}
\citation{webapi}
\citation{aspnetmvc}
\@writefile{toc}{\contentsline {subsection}{\numberline {6.2.3}Back-end interfejsu u\.zytkownika}{51}{subsection.6.2.3}}
\@writefile{toc}{\contentsline {paragraph}{}{51}{section*.55}}
\@writefile{lof}{\contentsline {figure}{\numberline {6.6}{\ignorespaces Schemat kontroler\'ow odpowiedzialnych za obs\IeC {\l }ug\k e panelu administratora.}}{51}{figure.6.6}}
\citation{autofac}
\@writefile{lof}{\contentsline {figure}{\numberline {6.7}{\ignorespaces Schemat kontroler\'ow odpowiedzialnych za obs\IeC {\l }ug\k e cz\k e\'sci aplikacji zwi\k azanej z u\.zytkownikiem.}}{52}{figure.6.7}}
\citation{aspnet}
\citation{angular}
\citation{angular}
\citation{angular}
\@writefile{toc}{\contentsline {paragraph}{}{53}{section*.56}}
\@writefile{toc}{\contentsline {subsection}{\numberline {6.2.4}Front-end interfejsu u\.zytkownika}{53}{subsection.6.2.4}}
\@writefile{toc}{\contentsline {paragraph}{}{53}{section*.57}}
\@writefile{toc}{\contentsline {subsection}{\numberline {6.2.5}Front-end panelu administratora}{53}{subsection.6.2.5}}
\@writefile{toc}{\contentsline {paragraph}{}{53}{section*.58}}
\@writefile{toc}{\contentsline {paragraph}{Model}{53}{section*.59}}
\@writefile{toc}{\contentsline {paragraph}{Kontroler - Controller}{53}{section*.60}}
\@writefile{toc}{\contentsline {paragraph}{Widok - View}{53}{section*.61}}
\citation{identitydbcontext}
\citation{visual}
\citation{aspnet}
\@writefile{toc}{\contentsline {subsection}{\numberline {6.2.6}Klasy pomocnicze}{54}{subsection.6.2.6}}
\@writefile{toc}{\contentsline {paragraph}{CacheHelper}{54}{section*.62}}
\@writefile{toc}{\contentsline {paragraph}{ForumClient}{54}{section*.63}}
\@writefile{toc}{\contentsline {paragraph}{SsoController}{54}{section*.64}}
\@writefile{toc}{\contentsline {paragraph}{DomainContext}{54}{section*.65}}
\@writefile{toc}{\contentsline {paragraph}{LanguageFilter}{54}{section*.66}}
\citation{visual}
\citation{aspnet}
\citation{aspnetmvc}
\citation{aspnet}
\citation{webapi}
\citation{angular}
\citation{sqlserver}
\citation{entity}
\citation{tinymce}
\@writefile{toc}{\contentsline {section}{\numberline {6.3}Zastosowane technologie i narz\k edzia}{55}{section.6.3}}
\@writefile{toc}{\contentsline {paragraph}{C\# 5}{55}{section*.67}}
\@writefile{toc}{\contentsline {paragraph}{Visual Studio 2012-2015}{55}{section*.68}}
\@writefile{toc}{\contentsline {paragraph}{ASP.NET MVC 5}{55}{section*.69}}
\@writefile{toc}{\contentsline {paragraph}{Webapi 2}{55}{section*.70}}
\@writefile{toc}{\contentsline {paragraph}{MS SQL Server 2012}{55}{section*.71}}
\@writefile{toc}{\contentsline {paragraph}{HTML5, CSS3, JavaScript}{55}{section*.72}}
\@writefile{toc}{\contentsline {paragraph}{Tiny MCE 4.2.7}{55}{section*.73}}
\citation{jquery}
\citation{foundation}
\citation{angular}
\citation{autofac}
\citation{entity}
\citation{moq}
\citation{nunit}
\@writefile{toc}{\contentsline {paragraph}{jQuery}{56}{section*.74}}
\@writefile{toc}{\contentsline {paragraph}{Zurb Foundation}{56}{section*.75}}
\@writefile{toc}{\contentsline {paragraph}{AngularJS}{56}{section*.76}}
\@writefile{toc}{\contentsline {paragraph}{Autofac 3.4.0}{56}{section*.77}}
\@writefile{toc}{\contentsline {paragraph}{EntityFramework 6.1.3}{56}{section*.78}}
\@writefile{toc}{\contentsline {paragraph}{Moq}{56}{section*.79}}
\citation{mvcforum}
\@writefile{toc}{\contentsline {paragraph}{NUnit 2.6}{57}{section*.80}}
\@writefile{toc}{\contentsline {paragraph}{MVCForum}{57}{section*.81}}
\citation{aspnet}
\citation{mvcforum}
\citation{gplv2}
\citation{mvcforumlicence}
\@writefile{toc}{\contentsline {chapter}{\numberline {7}Podsumowanie}{58}{chapter.7}}
\@writefile{lof}{\addvspace {10\p@ }}
\@writefile{lot}{\addvspace {10\p@ }}
\@writefile{toc}{\contentsline {paragraph}{}{58}{section*.82}}
\@writefile{toc}{\contentsline {paragraph}{}{58}{section*.83}}
\@writefile{toc}{\contentsline {paragraph}{}{58}{section*.84}}
\@writefile{toc}{\contentsline {paragraph}{}{59}{section*.85}}
\@writefile{toc}{\contentsline {paragraph}{}{59}{section*.86}}
\@writefile{toc}{\contentsline {paragraph}{}{59}{section*.87}}
\@writefile{toc}{\contentsline {paragraph}{}{59}{section*.88}}
\@writefile{toc}{\contentsline {chapter}{\numberline {8}S\IeC {\l }ownik poj\k e\'c}{60}{chapter.8}}
\@writefile{lof}{\addvspace {10\p@ }}
\@writefile{lot}{\addvspace {10\p@ }}
\@writefile{toc}{\contentsline {paragraph}{}{60}{section*.89}}
\bibcite{dotnet}{1}
\bibcite{aspnet}{2}
\bibcite{aspnetmvc}{3}
\bibcite{iis}{4}
\bibcite{sqlserver}{5}
\bibcite{angular}{6}
\bibcite{wordpress}{7}
\bibcite{joomla}{8}
\bibcite{drupal}{9}
\bibcite{orchard}{10}
\bibcite{umbraco}{11}
\bibcite{owin}{12}
\bibcite{formsauth}{13}
\bibcite{identity}{14}
\bibcite{foundation}{15}
\bibcite{git}{16}
\bibcite{gitlab}{17}
\bibcite{identityuser}{18}
\bibcite{dbcontext}{19}
\bibcite{webapi}{20}
\bibcite{autofac}{21}
\bibcite{identitydbcontext}{22}
\bibcite{tinymce}{23}
\bibcite{jquery}{24}
\bibcite{angularfoundation}{25}
\bibcite{uirouter}{26}
\bibcite{angular-spinner}{27}
\bibcite{linqjs}{28}
\bibcite{moq}{29}
\bibcite{nunit}{30}
\bibcite{mvcforum}{31}
\bibcite{firefox}{32}
\bibcite{chrome}{33}
\bibcite{explorer}{34}
\bibcite{visual}{35}
\bibcite{entity}{36}
\bibcite{systemwebhttp}{37}
\bibcite{mvcforumlicence}{38}
\bibcite{gplv2}{39}
\bibcite{antiforgery}{40}
\bibcite{managementstudio}{41}
\citation{firefox}
\citation{chrome}
\citation{explorer}
\@writefile{toc}{\contentsline {chapter}{\numberline {A}Instrukcja u\.zytkownika}{67}{appendix.A}}
\@writefile{lof}{\addvspace {10\p@ }}
\@writefile{lot}{\addvspace {10\p@ }}
\@writefile{toc}{\contentsline {paragraph}{}{67}{section*.91}}
\@writefile{toc}{\contentsline {section}{\numberline {A.1}Dost\k ep do aplikacji}{67}{section.A.1}}
\@writefile{toc}{\contentsline {paragraph}{}{67}{section*.92}}
\@writefile{toc}{\contentsline {section}{\numberline {A.2}Podstawowe elementy systemu}{68}{section.A.2}}
\@writefile{toc}{\contentsline {subsection}{\numberline {A.2.1}Strona g\IeC {\l }\'owna}{68}{subsection.A.2.1}}
\@writefile{toc}{\contentsline {paragraph}{}{68}{section*.93}}
\@writefile{toc}{\contentsline {paragraph}{Logo uczelni (1)}{68}{section*.94}}
\@writefile{toc}{\contentsline {paragraph}{Menu g\IeC {\l }\'owne (2)}{68}{section*.95}}
\@writefile{toc}{\contentsline {paragraph}{Baner (3)}{68}{section*.96}}
\@writefile{toc}{\contentsline {paragraph}{Menu 2. (4)}{68}{section*.97}}
\@writefile{toc}{\contentsline {paragraph}{Menu kafelkowe (5)}{68}{section*.98}}
\@writefile{toc}{\contentsline {paragraph}{Stopka (6)}{69}{section*.99}}
\@writefile{lof}{\contentsline {figure}{\numberline {A.1}{\ignorespaces Ekran strony g\IeC {\l }\'ownej}}{69}{figure.A.1}}
\@writefile{toc}{\contentsline {subsection}{\numberline {A.2.2}Ekran logowania}{69}{subsection.A.2.2}}
\@writefile{toc}{\contentsline {paragraph}{}{69}{section*.100}}
\@writefile{toc}{\contentsline {subsection}{\numberline {A.2.3}Zmiana j\k ezyka systemu}{70}{subsection.A.2.3}}
\@writefile{toc}{\contentsline {paragraph}{}{70}{section*.101}}
\@writefile{toc}{\contentsline {section}{\numberline {A.3}Strony informacyjne}{70}{section.A.3}}
\@writefile{toc}{\contentsline {section}{\numberline {A.4}Dydaktyka}{70}{section.A.4}}
\@writefile{toc}{\contentsline {paragraph}{}{70}{section*.102}}
\@writefile{toc}{\contentsline {paragraph}{}{71}{section*.103}}
\@writefile{lof}{\contentsline {figure}{\numberline {A.2}{\ignorespaces Ekran przyk\IeC {\l }adowego przedmiotu}}{72}{figure.A.2}}
\@writefile{toc}{\contentsline {section}{\numberline {A.5}Forum}{73}{section.A.5}}
\@writefile{toc}{\contentsline {paragraph}{Administrator}{73}{section*.104}}
\@writefile{toc}{\contentsline {paragraph}{Standardowy u\.zytkownik}{73}{section*.105}}
\@writefile{toc}{\contentsline {paragraph}{Go\'s\'c}{73}{section*.106}}
\@writefile{toc}{\contentsline {section}{\numberline {A.6}Panel administratora}{73}{section.A.6}}
\@writefile{toc}{\contentsline {subsection}{\numberline {A.6.1}J\k ezyki}{74}{subsection.A.6.1}}
\@writefile{toc}{\contentsline {paragraph}{Komunikaty systemu}{74}{section*.107}}
\@writefile{toc}{\contentsline {paragraph}{Strony informacyjne}{74}{section*.108}}
\@writefile{toc}{\contentsline {subsection}{\numberline {A.6.2}U\.zytkownicy}{75}{subsection.A.6.2}}
\@writefile{toc}{\contentsline {paragraph}{Nowy u\.zytkownik}{75}{section*.109}}
\@writefile{toc}{\contentsline {paragraph}{Istniej\k acy u\.zytkownik}{75}{section*.110}}
\citation{tinymce}
\@writefile{toc}{\contentsline {subsection}{\numberline {A.6.3}Strony}{76}{subsection.A.6.3}}
\@writefile{toc}{\contentsline {paragraph}{Nowa strona}{76}{section*.111}}
\@writefile{toc}{\contentsline {paragraph}{Istniej\k aca strona}{77}{section*.112}}
\@writefile{lof}{\contentsline {figure}{\numberline {A.3}{\ignorespaces Ekran tworzenia/edycji strony}}{77}{figure.A.3}}
\@writefile{toc}{\contentsline {subsection}{\numberline {A.6.4}Strona g\IeC {\l }\'owna}{77}{subsection.A.6.4}}
\@writefile{toc}{\contentsline {paragraph}{}{77}{section*.113}}
\@writefile{toc}{\contentsline {paragraph}{Edycja listy kafelk\'ow}{78}{section*.114}}
\@writefile{toc}{\contentsline {paragraph}{Edycja kafelka}{78}{section*.115}}
\@writefile{lof}{\contentsline {figure}{\numberline {A.4}{\ignorespaces Ekran edycji kafelk\'ow strony g\IeC {\l }\'ownej}}{79}{figure.A.4}}
\@writefile{toc}{\contentsline {subsection}{\numberline {A.6.5}Menu nawigacyjne}{79}{subsection.A.6.5}}
\@writefile{toc}{\contentsline {subsection}{\numberline {A.6.6}Przedmioty}{79}{subsection.A.6.6}}
\@writefile{toc}{\contentsline {paragraph}{Nowy przedmiot}{79}{section*.116}}
\@writefile{toc}{\contentsline {paragraph}{Edycja przedmiotu}{80}{section*.117}}
\@writefile{lof}{\contentsline {figure}{\numberline {A.5}{\ignorespaces Ekran edycji przedmiotu}}{80}{figure.A.5}}
\@writefile{toc}{\contentsline {paragraph}{Edycja sekcji nale\.z\k acych do przedmiotu}{80}{section*.118}}
\@writefile{toc}{\contentsline {paragraph}{Edycja aktualno\'sci}{81}{section*.119}}
\@writefile{lof}{\contentsline {figure}{\numberline {A.6}{\ignorespaces Sekcja edycji news\'ow}}{81}{figure.A.6}}
\@writefile{toc}{\contentsline {paragraph}{Edycja planu zaj\k e\'c i sylabusa}{81}{section*.120}}
\@writefile{toc}{\contentsline {paragraph}{Dodawanie materia\IeC {\l }\'ow dydaktycznych}{82}{section*.121}}
\@writefile{toc}{\contentsline {paragraph}{Przypisywanie nauczyciela do przedmiotu}{82}{section*.122}}
\@writefile{toc}{\contentsline {paragraph}{Wy\'swietlanie listy student\'ow zapisanych na przedmiot}{82}{section*.123}}
\@writefile{toc}{\contentsline {paragraph}{Zarz\k adzanie statusem zapisania studenta na przedmiot}{83}{section*.124}}
\@writefile{lof}{\contentsline {figure}{\numberline {A.7}{\ignorespaces Sekcja zarz\k adzania wnioskami o zapisanie na przedmiot}}{83}{figure.A.7}}
\@writefile{toc}{\contentsline {subsection}{\numberline {A.6.7}Galeria obrazk\'ow}{83}{subsection.A.6.7}}
\@writefile{toc}{\contentsline {paragraph}{U\.zycie obrazka z galerii}{83}{section*.125}}
\@writefile{toc}{\contentsline {chapter}{\numberline {B}Testy systemu}{85}{appendix.B}}
\@writefile{lof}{\addvspace {10\p@ }}
\@writefile{lot}{\addvspace {10\p@ }}
\@writefile{toc}{\contentsline {paragraph}{}{85}{section*.126}}
\@writefile{toc}{\contentsline {paragraph}{}{85}{section*.127}}
\@writefile{toc}{\contentsline {section}{\numberline {B.1}Testy konta u\.zytkownika}{85}{section.B.1}}
\@writefile{toc}{\contentsline {paragraph}{U\.zytkownik mo\.ze si\k e zalogowa\'c}{85}{section*.128}}
\@writefile{toc}{\contentsline {paragraph}{U\.zytkownik mo\.ze zresetowa\'c has\IeC {\l }o}{86}{section*.129}}
\@writefile{toc}{\contentsline {paragraph}{U\.zytkownik mo\.ze zmieni\'c has\IeC {\l }o}{86}{section*.130}}
\@writefile{toc}{\contentsline {paragraph}{Administrator mo\.ze wyszuka\'c istniej\k acego u\.zytkownika}{87}{section*.131}}
\@writefile{toc}{\contentsline {paragraph}{Administrator mo\.ze doda\'c nowego u\.zytkownika}{87}{section*.132}}
\@writefile{toc}{\contentsline {paragraph}{Administrator mo\.ze zmieni\'c rol\k e istniej\k acego u\.zytkownika}{88}{section*.133}}
\@writefile{toc}{\contentsline {paragraph}{Administrator mo\.ze dezaktywowa\'c konto u\.zytkownika}{88}{section*.134}}
\@writefile{toc}{\contentsline {section}{\numberline {B.2}Testy forum}{89}{section.B.2}}
\@writefile{toc}{\contentsline {paragraph}{U\.zytkownik mo\.ze uzyska\'c dost\k ep do forum}{89}{section*.135}}
\@writefile{toc}{\contentsline {section}{\numberline {B.3}Testy stron informacyjnych}{89}{section.B.3}}
\@writefile{toc}{\contentsline {paragraph}{Administrator mo\.ze doda\'c now\k a stron\k e}{89}{section*.136}}
\@writefile{toc}{\contentsline {paragraph}{U\.zytkownik mo\.ze wy\'swietla\'c strony informacyjne}{90}{section*.137}}
\@writefile{toc}{\contentsline {paragraph}{U\.zytkownik mo\.ze zmieni\'c j\k ezyk strony}{90}{section*.138}}
\@writefile{toc}{\contentsline {paragraph}{Administrator mo\.ze doda\'c t\IeC {\l }umaczenie strony}{91}{section*.139}}
\@writefile{toc}{\contentsline {paragraph}{Administrator mo\.ze edytowa\'c zawarto\'s\'c istniej\k acej strony}{91}{section*.140}}
\@writefile{toc}{\contentsline {paragraph}{Administrator mo\.ze usun\k a\'c istniej\k ac\k a stron\k e}{92}{section*.141}}
\@writefile{toc}{\contentsline {section}{\numberline {B.4}Testy modu\IeC {\l }u dydaktyki}{92}{section.B.4}}
\@writefile{toc}{\contentsline {paragraph}{Nauczyciel mo\.ze edytowa\'c stron\k e przedmiotu}{92}{section*.142}}
\@writefile{toc}{\contentsline {paragraph}{Ucze\'n posiadaj\k acy dost\k ep do przedmiotu mo\.ze odczyta\'c zawarto\'s\'c przedmiotu}{93}{section*.143}}
\@writefile{toc}{\contentsline {paragraph}{Ucze\'n posiadaj\k acy dost\k ep do przedmiotu mo\.ze pobra\'c plik}{93}{section*.144}}
\@writefile{toc}{\contentsline {paragraph}{Ucze\'n nieposiadaj\k acy dost\k epu do przedmiotu nie mo\.ze pobra\'c pliku}{94}{section*.145}}
\@writefile{toc}{\contentsline {paragraph}{Administrator mo\.ze doda\'c nowy przedmiot}{94}{section*.146}}
\@writefile{toc}{\contentsline {paragraph}{Administrator mo\.ze przydzieli\'c nauczyciela do przedmiotu}{94}{section*.147}}
\@writefile{toc}{\contentsline {paragraph}{Zapisanie si\k e na przedmiot}{95}{section*.148}}
\@writefile{toc}{\contentsline {paragraph}{Administrator mo\.ze odebra\'c nauczycielowi prawa do przedmiotu}{96}{section*.149}}
\@writefile{toc}{\contentsline {section}{\numberline {B.5}Testy modu\IeC {\l }u administratora}{97}{section.B.5}}
\@writefile{toc}{\contentsline {paragraph}{Administrator mo\.ze edytowa\'c menu nawigacyjne}{97}{section*.150}}
\@writefile{toc}{\contentsline {paragraph}{Administrator mo\.ze doda\'c nowy j\k ezyk do systemu}{97}{section*.151}}
